\BOOKMARK [1][-]{section.1}{Introduction}{}% 1
\BOOKMARK [1][-]{section.2}{ The Scenario }{}% 2
\BOOKMARK [2][-]{subsection.2.1}{Create a notation for petri nets}{section.2}% 3
\BOOKMARK [2][-]{subsection.2.2}{Define the PNModel}{section.2}% 4
\BOOKMARK [2][-]{subsection.2.3}{Define an example petri net model}{section.2}% 5
\BOOKMARK [2][-]{subsection.2.4}{Define answer format for the classes to be exported}{section.2}% 6
\BOOKMARK [2][-]{subsection.2.5}{Define the export task}{section.2}% 7
