%!PS-Adobe-3.0 EPSF-3.0 
%%BoundingBox: 0 0 250 77
%%Pages: 0
%%Creator: LibreOffice 3.3
%%Title: none
%%CreationDate: none
%%LanguageLevel: 2
%%EndComments
%%BeginProlog
%%BeginResource: procset SDRes-Prolog 1.0 0
/b4_inc_state save def
/dict_count countdictstack def
/op_count count 1 sub def
userdict begin
0 setgray 0 setlinecap 1 setlinewidth 0 setlinejoin 10 setmiterlimit[] 0 setdash newpath
/languagelevel where {pop languagelevel 1 ne {false setstrokeadjust false setoverprint} if} if
/bdef {bind def} bind def
/c {setrgbcolor} bdef
/l {neg lineto} bdef
/rl {neg rlineto} bdef
/lc {setlinecap} bdef
/lj {setlinejoin} bdef
/lw {setlinewidth} bdef
/ml {setmiterlimit} bdef
/ld {setdash} bdef
/m {neg moveto} bdef
/ct {6 2 roll neg 6 2 roll neg 6 2 roll neg curveto} bdef
/r {rotate} bdef
/t {neg translate} bdef
/s {scale} bdef
/sw {show} bdef
/gs {gsave} bdef
/gr {grestore} bdef
/f {findfont dup length dict begin
{1 index /FID ne {def} {pop pop} ifelse} forall /Encoding ISOLatin1Encoding def
currentdict end /NFont exch definefont pop /NFont findfont} bdef
/p {closepath} bdef
/sf {scalefont setfont} bdef
/ef {eofill}bdef
/pc {closepath stroke}bdef
/ps {stroke}bdef
/pum {matrix currentmatrix}bdef
/pom {setmatrix}bdef
/bs {/aString exch def /nXOfs exch def /nWidth exch def currentpoint nXOfs 0 rmoveto pum nWidth aString stringwidth pop div 1 scale aString show pom moveto} bdef
%%EndResource
%%EndProlog
%%BeginSetup
%%EndSetup
%%Page: 1 1
%%BeginPageSetup
%%EndPageSetup
pum
0.02836 0.02823 s 
0 -2727 t
/tm matrix currentmatrix def
tm setmatrix
-1332 -218 t 
1 1 s 
1.000 1.000 0.800 c 7508 1404 m  7172 1404 l  7172 244 l  7844 244 l  7844 1404 l 
7508 1404 l  p ef
0 lw 1 lj 0.003 0.003 0.003 c 7508 1404 m  7172 1404 l  7172 244 l  7844 244 l 
7844 1404 l  7508 1404 l  pc

1.000 1.000 0.800 c 6835 1404 m  6534 1404 l  6534 244 l  7136 244 l  7136 1404 l 
6835 1404 l  p ef
0.003 0.003 0.003 c 6835 1404 m  6534 1404 l  6534 244 l  7136 244 l  7136 1404 l 
6835 1404 l  pc

1.000 1.000 0.800 c 6190 1404 m  5882 1404 l  5882 244 l  6497 244 l  6497 1404 l 
6190 1404 l  p ef
0.003 0.003 0.003 c 6190 1404 m  5882 1404 l  5882 244 l  6497 244 l  6497 1404 l 
6190 1404 l  pc

0.800 1.000 1.000 c 5544 1403 m  5202 1403 l  5202 254 l  5886 254 l  5886 1403 l 
5544 1403 l  p ef
0.003 0.003 0.003 c 5544 1403 m  5202 1403 l  5202 254 l  5886 254 l  5886 1403 l 
5544 1403 l  pc

0.800 1.000 1.000 c 4825 1410 m  4475 1410 l  4475 250 l  5175 250 l  5175 1410 l 
4825 1410 l  p ef
0.003 0.003 0.003 c 4825 1410 m  4475 1410 l  4475 250 l  5175 250 l  5175 1410 l 
4825 1410 l  pc

0.800 1.000 1.000 c 4099 1412 m  3757 1412 l  3757 252 l  4441 252 l  4441 1412 l 
4099 1412 l  p ef
0.003 0.003 0.003 c 4099 1412 m  3757 1412 l  3757 252 l  4441 252 l  4441 1412 l 
4099 1412 l  pc

0.800 1.000 1.000 c 3394 1415 m  3052 1415 l  3052 255 l  3736 255 l  3736 1415 l 
3394 1415 l  p ef
0.003 0.003 0.003 c 3394 1415 m  3052 1415 l  3052 255 l  3736 255 l  3736 1415 l 
3394 1415 l  pc


pum
1582 1058 t
252 126 m  252 -36 l  243 -23 231 -13 215 -5 ct 200 3 183 7 166 7 ct 127 7 93 -9 65 -40 ct 
36 -71 22 -114 22 -168 ct 22 -201 28 -231 40 -257 ct 51 -283 68 -303 89 -317 ct 
111 -330 135 -337 161 -337 ct 202 -337 234 -320 257 -286 ct 257 -330 l  308 -330 l 
308 126 l  252 126 l  p
80 -166 m  80 -124 89 -92 106 -71 ct 124 -50 145 -39 170 -39 ct 194 -39 214 -49 232 -69 ct 
249 -89 257 -120 257 -161 ct 257 -205 248 -238 230 -260 ct 212 -282 191 -293 167 -293 ct 
142 -293 122 -283 105 -262 ct 88 -242 80 -210 80 -166 ct p ef
408 -266 m  408 -330 l  472 -330 l  472 -266 l  408 -266 l  p
408 0 m  408 -64 l  472 -64 l  472 0 l  408 0 l  p ef
pom
25 lw 6582 1426 m  3032 1426 l  3032 231 l  10131 231 l  10131 1426 l 
6582 1426 l  pc
pum
3294 944 t
164 -50 m  172 -1 l  156 2 142 4 130 4 ct 109 4 94 1 82 -6 ct 71 -12 63 -20 59 -31 ct 
54 -41 52 -63 52 -97 ct 52 -287 l  11 -287 l  11 -330 l  52 -330 l  52 -412 l 
108 -445 l  108 -330 l  164 -330 l  164 -287 l  108 -287 l  108 -94 l 
108 -78 109 -68 111 -63 ct 113 -58 116 -55 120 -52 ct 125 -49 131 -48 139 -48 ct 
145 -48 154 -49 164 -50 ct p ef
pom
pum
3472 1211 t
137 0 m  105 0 l  105 -206 l  97 -199 87 -191 74 -184 ct 61 -176 50 -171 40 -167 ct 
40 -198 l  58 -207 74 -217 88 -229 ct 101 -241 111 -253 116 -264 ct 137 -264 l 
137 0 l  p ef
pom
pum
3777 944 t
342 -50 m  350 -1 l  334 2 320 4 308 4 ct 287 4 272 1 260 -6 ct 249 -12 241 -20 237 -31 ct 
232 -41 230 -63 230 -97 ct 230 -287 l  189 -287 l  189 -330 l  230 -330 l 
230 -412 l  286 -445 l  286 -330 l  342 -330 l  342 -287 l  286 -287 l 
286 -94 l  286 -78 287 -68 289 -63 ct 291 -58 294 -55 298 -52 ct 303 -49 309 -48 317 -48 ct 
323 -48 332 -49 342 -50 ct p ef
pom
pum
4133 1211 t
185 -31 m  185 0 l  11 0 l  11 -8 12 -15 15 -22 ct 19 -34 26 -46 36 -57 ct 46 -69 60 -82 79 -97 ct 
107 -121 127 -139 137 -153 ct 147 -167 152 -180 152 -192 ct 152 -204 147 -215 138 -224 ct 
129 -233 117 -237 102 -237 ct 86 -237 74 -233 65 -223 ct 55 -214 51 -201 51 -185 ct 
17 -188 l  20 -213 28 -232 43 -245 ct 58 -258 78 -264 103 -264 ct 128 -264 148 -257 163 -243 ct 
178 -229 185 -212 185 -191 ct 185 -181 183 -170 178 -160 ct 174 -150 167 -139 157 -128 ct 
147 -117 130 -101 107 -82 ct 88 -65 75 -54 70 -49 ct 64 -43 60 -37 56 -31 ct 185 -31 l 
p ef
pom
pum
4336 944 t
236 0 m  236 -64 l  299 -64 l  299 0 l  236 0 l  p ef
414 0 m  414 -64 l  477 -64 l  477 0 l  414 0 l  p ef
591 0 m  591 -64 l  654 -64 l  654 0 l  591 0 l  p ef
1053 -50 m  1061 -1 l  1045 2 1031 4 1019 4 ct 998 4 983 1 971 -6 ct 960 -12 952 -20 948 -31 ct 
943 -41 941 -63 941 -97 ct 941 -287 l  900 -287 l  900 -330 l  941 -330 l 
941 -412 l  997 -445 l  997 -330 l  1053 -330 l  1053 -287 l  997 -287 l 
997 -94 l  997 -78 998 -68 1000 -63 ct 1002 -58 1005 -55 1009 -52 ct 1014 -49 1020 -48 1028 -48 ct 
1034 -48 1043 -49 1053 -50 ct p ef
pom
pum
5403 1211 t
24 -226 m  24 -263 l  57 -263 l  57 -226 l  24 -226 l  p
24 0 m  24 -191 l  57 -191 l  57 0 l  24 0 l  p ef
92 -79 m  92 -112 l  191 -112 l  191 -79 l  92 -79 l  p ef
340 0 m  308 0 l  308 -206 l  300 -199 290 -191 277 -184 ct 264 -176 253 -171 243 -167 ct 
243 -198 l  261 -207 277 -217 291 -229 ct 304 -241 314 -253 319 -264 ct 340 -264 l 
340 0 l  p ef
pom
pum
5809 944 t
342 -50 m  350 -1 l  334 2 320 4 308 4 ct 287 4 272 1 260 -6 ct 249 -12 241 -20 237 -31 ct 
232 -41 230 -63 230 -97 ct 230 -287 l  189 -287 l  189 -330 l  230 -330 l 
230 -412 l  286 -445 l  286 -330 l  342 -330 l  342 -287 l  286 -287 l 
286 -94 l  286 -78 287 -68 289 -63 ct 291 -58 294 -55 298 -52 ct 303 -49 309 -48 317 -48 ct 
323 -48 332 -49 342 -50 ct p ef
pom
pum
6165 1211 t
24 -226 m  24 -263 l  57 -263 l  57 -226 l  24 -226 l  p
24 0 m  24 -191 l  57 -191 l  57 0 l  24 0 l  p ef
pom
pum
6245 944 t
414 0 m  414 -64 l  477 -64 l  477 0 l  414 0 l  p ef
591 0 m  591 -64 l  654 -64 l  654 0 l  591 0 l  p ef
769 0 m  769 -64 l  832 -64 l  832 0 l  769 0 l  p ef
1231 -50 m  1239 -1 l  1223 2 1209 4 1197 4 ct 1176 4 1161 1 1149 -6 ct 1138 -12 1130 -20 1126 -31 ct 
1121 -41 1119 -63 1119 -97 ct 1119 -287 l  1078 -287 l  1078 -330 l  1119 -330 l 
1119 -412 l  1175 -445 l  1175 -330 l  1231 -330 l  1231 -287 l  1175 -287 l 
1175 -94 l  1175 -78 1176 -68 1178 -63 ct 1180 -58 1183 -55 1187 -52 ct 1192 -49 1198 -48 1206 -48 ct 
1212 -48 1221 -49 1231 -50 ct p ef
pom
pum
7490 1211 t
24 -226 m  24 -264 l  56 -264 l  56 -226 l  24 -226 l  p
-17 74 m  -11 46 l  -4 48 1 49 5 49 ct 11 49 16 46 19 42 ct 22 38 24 27 24 9 ct 
24 -191 l  56 -191 l  56 10 l  56 33 53 50 47 59 ct 39 71 27 77 8 77 ct 0 77 -9 76 -17 74 ct 
p ef
pom
pum
7570 944 t
pom
3757 251 m  3757 1416 l  ps
4458 251 m  4458 1416 l  ps
5192 251 m  5192 1416 l  ps
5861 251 m  5861 1416 l  ps
6515 251 m  6515 1416 l  ps
7152 251 m  7152 1416 l  ps
7853 251 m  7853 1416 l  ps
8442 251 m  8442 1416 l  ps
26 lw 5573 2316 m  5573 1867 l  ps
5573 1471 m  5408 1966 l  5738 1966 l  5573 1471 l  p ef
8155 2301 m  8155 1852 l  ps
8155 1456 m  7990 1951 l  8320 1951 l  8155 1456 l  p ef

pum
4899 2742 t
23 0 m  23 -252 l  54 -252 l  54 0 l  23 0 l  p ef
219 -23 m  207 -13 196 -6 186 -2 ct 175 2 164 4 151 4 ct 131 4 116 -1 105 -11 ct 
94 -21 89 -33 89 -48 ct 89 -57 91 -65 95 -73 ct 99 -80 104 -86 111 -91 ct 118 -95 125 -98 133 -101 ct 
139 -102 149 -104 161 -105 ct 186 -108 204 -112 216 -116 ct 216 -120 216 -123 216 -124 ct 
216 -137 213 -146 208 -151 ct 200 -158 188 -161 172 -161 ct 158 -161 147 -159 140 -154 ct 
133 -149 128 -140 124 -127 ct 94 -131 l  97 -144 101 -154 108 -162 ct 114 -170 123 -176 135 -181 ct 
147 -185 161 -187 177 -187 ct 192 -187 205 -185 215 -181 ct 225 -178 232 -173 236 -168 ct 
241 -162 244 -155 246 -147 ct 247 -141 248 -132 248 -118 ct 248 -77 l  248 -48 248 -30 249 -22 ct 
251 -14 253 -7 257 0 ct 225 0 l  222 -7 220 -14 219 -23 ct p
216 -92 m  205 -87 188 -83 165 -80 ct 153 -78 144 -76 138 -74 ct 133 -72 129 -68 126 -64 ct 
123 -59 122 -55 122 -49 ct 122 -41 125 -34 131 -29 ct 138 -23 147 -20 159 -20 ct 
171 -20 181 -23 191 -28 ct 200 -33 207 -40 211 -50 ct 214 -57 216 -67 216 -80 ct 
216 -92 l  p ef
282 -55 m  313 -60 l  314 -47 319 -38 327 -31 ct 335 -25 346 -21 360 -21 ct 
374 -21 385 -24 392 -30 ct 399 -36 402 -43 402 -51 ct 402 -58 399 -63 393 -67 ct 
389 -70 378 -73 361 -78 ct 338 -83 323 -88 314 -92 ct 305 -97 298 -102 294 -110 ct 
289 -117 287 -125 287 -134 ct 287 -143 289 -150 293 -157 ct 296 -164 301 -170 308 -174 ct 
313 -178 319 -181 328 -183 ct 336 -186 345 -187 354 -187 ct 369 -187 381 -185 392 -181 ct 
403 -177 411 -171 416 -164 ct 421 -157 425 -148 427 -136 ct 397 -132 l  395 -141 391 -148 385 -154 ct 
378 -159 369 -162 357 -162 ct 342 -162 332 -159 326 -154 ct 320 -150 317 -144 317 -138 ct 
317 -134 318 -130 321 -127 ct 323 -124 327 -121 333 -119 ct 336 -118 345 -115 360 -111 ct 
382 -105 397 -100 406 -97 ct 415 -93 422 -87 426 -80 ct 431 -73 434 -64 434 -54 ct 
434 -43 431 -34 425 -25 ct 419 -16 410 -8 399 -3 ct 387 2 374 4 360 4 ct 336 4 318 -1 306 -11 ct 
293 -21 285 -35 282 -55 ct p ef
540 -28 m  544 -1 l  536 1 528 2 521 2 ct 510 2 501 0 495 -3 ct 489 -7 484 -12 482 -17 ct 
479 -23 478 -35 478 -54 ct 478 -159 l  455 -159 l  455 -183 l  478 -183 l 
478 -228 l  509 -247 l  509 -183 l  540 -183 l  540 -159 l  509 -159 l 
509 -52 l  509 -43 509 -38 510 -35 ct 512 -33 513 -31 516 -29 ct 518 -28 522 -27 526 -27 ct 
530 -27 534 -27 540 -28 ct p ef
674 0 m  674 -159 l  646 -159 l  646 -183 l  674 -183 l  674 -203 l  674 -215 675 -224 677 -230 ct 
680 -238 685 -245 693 -250 ct 700 -255 711 -257 724 -257 ct 733 -257 743 -256 753 -254 ct 
749 -227 l  742 -228 736 -229 730 -229 ct 721 -229 714 -227 710 -223 ct 706 -219 705 -211 705 -200 ct 
705 -183 l  740 -183 l  740 -159 l  705 -159 l  705 0 l  674 0 l  p ef
764 -217 m  764 -253 l  795 -253 l  795 -217 l  764 -217 l  p
764 0 m  764 -183 l  795 -183 l  795 0 l  764 0 l  p ef
840 0 m  840 -183 l  868 -183 l  868 -155 l  875 -168 882 -177 888 -181 ct 
894 -185 900 -187 907 -187 ct 918 -187 929 -184 939 -177 ct 929 -148 l  921 -153 914 -155 906 -155 ct 
899 -155 893 -153 888 -149 ct 882 -145 878 -139 876 -132 ct 873 -121 871 -109 871 -96 ct 
871 0 l  840 0 l  p ef
1085 -59 m  1117 -55 l  1112 -36 1102 -22 1089 -11 ct 1075 -1 1057 4 1036 4 ct 
1009 4 988 -4 972 -21 ct 957 -37 949 -60 949 -90 ct 949 -121 957 -145 973 -162 ct 
989 -179 1009 -187 1034 -187 ct 1059 -187 1079 -179 1094 -162 ct 1110 -145 1118 -122 1118 -92 ct 
1118 -90 1118 -87 1118 -84 ct 981 -84 l  982 -63 988 -48 998 -37 ct 1008 -27 1021 -21 1036 -21 ct 
1048 -21 1057 -24 1065 -30 ct 1073 -36 1080 -46 1085 -59 ct p
983 -109 m  1085 -109 l  1084 -124 1080 -136 1073 -144 ct 1063 -156 1051 -162 1035 -162 ct 
1021 -162 1009 -157 999 -147 ct 989 -138 984 -125 983 -109 ct p ef
1272 0 m  1272 -23 l  1260 -5 1243 4 1221 4 ct 1206 4 1193 0 1181 -8 ct 1168 -16 1159 -27 1152 -42 ct 
1145 -56 1142 -73 1142 -91 ct 1142 -110 1145 -126 1151 -141 ct 1157 -156 1166 -167 1179 -175 ct 
1191 -183 1204 -187 1219 -187 ct 1230 -187 1240 -185 1249 -180 ct 1258 -175 1265 -169 1270 -162 ct 
1270 -252 l  1301 -252 l  1301 0 l  1272 0 l  p
1174 -91 m  1174 -68 1179 -50 1189 -39 ct 1199 -27 1210 -21 1224 -21 ct 1237 -21 1249 -27 1258 -38 ct 
1268 -49 1273 -66 1273 -89 ct 1273 -114 1268 -132 1258 -144 ct 1248 -156 1237 -161 1222 -161 ct 
1209 -161 1197 -156 1188 -144 ct 1179 -133 1174 -116 1174 -91 ct p ef
pom

pum
7466 2727 t
23 0 m  23 -183 l  51 -183 l  51 -157 l  65 -177 84 -187 109 -187 ct 120 -187 131 -185 140 -181 ct 
149 -177 156 -172 161 -165 ct 165 -159 168 -151 170 -143 ct 171 -137 172 -127 172 -112 ct 
172 0 l  141 0 l  141 -111 l  141 -124 140 -133 137 -140 ct 135 -146 131 -151 125 -155 ct 
118 -158 111 -160 103 -160 ct 90 -160 78 -156 69 -148 ct 59 -139 54 -123 54 -100 ct 
54 0 l  23 0 l  p ef
344 -59 m  376 -55 l  371 -36 361 -22 348 -11 ct 334 -1 316 4 295 4 ct 268 4 247 -4 231 -21 ct 
216 -37 208 -60 208 -90 ct 208 -121 216 -145 232 -162 ct 248 -179 268 -187 293 -187 ct 
318 -187 338 -179 353 -162 ct 369 -145 377 -122 377 -92 ct 377 -90 377 -87 377 -84 ct 
240 -84 l  241 -63 247 -48 257 -37 ct 267 -27 280 -21 295 -21 ct 307 -21 316 -24 324 -30 ct 
332 -36 339 -46 344 -59 ct p
242 -109 m  344 -109 l  343 -124 339 -136 332 -144 ct 322 -156 310 -162 294 -162 ct 
280 -162 268 -157 258 -147 ct 248 -138 243 -125 242 -109 ct p ef
392 0 m  458 -95 l  397 -183 l  435 -183 l  463 -140 l  469 -132 473 -125 476 -120 ct 
481 -127 486 -134 490 -140 ct 521 -183 l  558 -183 l  495 -97 l  563 0 l 
525 0 l  487 -57 l  477 -72 l  429 0 l  392 0 l  p ef
658 -28 m  662 -1 l  654 1 646 2 639 2 ct 628 2 619 0 613 -3 ct 607 -7 602 -12 600 -17 ct 
597 -23 596 -35 596 -54 ct 596 -159 l  573 -159 l  573 -183 l  596 -183 l 
596 -228 l  627 -247 l  627 -183 l  658 -183 l  658 -159 l  627 -159 l 
627 -52 l  627 -43 627 -38 628 -35 ct 630 -33 631 -31 634 -29 ct 636 -28 640 -27 644 -27 ct 
648 -27 652 -27 658 -28 ct p ef
793 0 m  793 -159 l  765 -159 l  765 -183 l  793 -183 l  793 -203 l  793 -215 794 -224 796 -230 ct 
799 -238 804 -245 812 -250 ct 819 -255 830 -257 843 -257 ct 852 -257 862 -256 872 -254 ct 
868 -227 l  861 -228 855 -229 849 -229 ct 840 -229 833 -227 829 -223 ct 825 -219 824 -211 824 -200 ct 
824 -183 l  859 -183 l  859 -159 l  824 -159 l  824 0 l  793 0 l  p ef
882 0 m  882 -183 l  910 -183 l  910 -155 l  917 -168 924 -177 930 -181 ct 
936 -185 942 -187 949 -187 ct 960 -187 971 -184 981 -177 ct 971 -148 l  963 -153 956 -155 948 -155 ct 
941 -155 935 -153 930 -149 ct 924 -145 920 -139 918 -132 ct 915 -121 913 -109 913 -96 ct 
913 0 l  882 0 l  p ef
1127 -59 m  1159 -55 l  1154 -36 1144 -22 1131 -11 ct 1117 -1 1099 4 1078 4 ct 
1051 4 1030 -4 1014 -21 ct 999 -37 991 -60 991 -90 ct 991 -121 999 -145 1015 -162 ct 
1031 -179 1051 -187 1076 -187 ct 1101 -187 1121 -179 1136 -162 ct 1152 -145 1160 -122 1160 -92 ct 
1160 -90 1160 -87 1160 -84 ct 1023 -84 l  1024 -63 1030 -48 1040 -37 ct 1050 -27 1063 -21 1078 -21 ct 
1090 -21 1099 -24 1107 -30 ct 1115 -36 1122 -46 1127 -59 ct p
1025 -109 m  1127 -109 l  1126 -124 1122 -136 1115 -144 ct 1105 -156 1093 -162 1077 -162 ct 
1063 -162 1051 -157 1041 -147 ct 1031 -138 1026 -125 1025 -109 ct p ef
1322 -59 m  1354 -55 l  1349 -36 1339 -22 1326 -11 ct 1312 -1 1294 4 1273 4 ct 
1246 4 1225 -4 1209 -21 ct 1194 -37 1186 -60 1186 -90 ct 1186 -121 1194 -145 1210 -162 ct 
1226 -179 1246 -187 1271 -187 ct 1296 -187 1316 -179 1331 -162 ct 1347 -145 1355 -122 1355 -92 ct 
1355 -90 1355 -87 1355 -84 ct 1218 -84 l  1219 -63 1225 -48 1235 -37 ct 1245 -27 1258 -21 1273 -21 ct 
1285 -21 1294 -24 1302 -30 ct 1310 -36 1317 -46 1322 -59 ct p
1220 -109 m  1322 -109 l  1321 -124 1317 -136 1310 -144 ct 1300 -156 1288 -162 1272 -162 ct 
1258 -162 1246 -157 1236 -147 ct 1226 -138 1221 -125 1220 -109 ct p ef
pom
0 2727 t 
pom
count op_count sub {pop} repeat countdictstack dict_count sub {end} repeat b4_inc_state restore
%%PageTrailer
%%Trailer
%%EOF
